Stopword
…
library(hcandersenr)
library(tidyverse)
library(tidytext)

fir_tree <- hca_fairytales() %>%
  filter(book == "The fir tree",
         language == "English")

tidy_fir_tree <- fir_tree %>%
  unnest_tokens(word, text)

tidy_fir_tree %>%
  filter(!(word %in% stopwords(source = "snowball")))

## # A tibble: 1,547 x 3
##    book         language word   
##    <chr>        <chr>    <chr>  
##  1 The fir tree English  far    
##  2 The fir tree English  forest 
##  3 The fir tree English  warm   
##  4 The fir tree English  sun    
##  5 The fir tree English  fresh  
##  6 The fir tree English  air    
##  7 The fir tree English  made   
##  8 The fir tree English  sweet  
##  9 The fir tree English  resting
## 10 The fir tree English  place  
## # ... with 1,537 more rows

tidy_fir_tree %>%
  anti_join(get_stopwords(source = "snowball"))

## Joining, by = "word"

## # A tibble: 1,547 x 3
##    book         language word   
##    <chr>        <chr>    <chr>  
##  1 The fir tree English  far    
##  2 The fir tree English  forest 
##  3 The fir tree English  warm   
##  4 The fir tree English  sun    
##  5 The fir tree English  fresh  
##  6 The fir tree English  air    
##  7 The fir tree English  made   
##  8 The fir tree English  sweet  
##  9 The fir tree English  resting
## 10 The fir tree English  place  
## # ... with 1,537 more rows
…
